alpha,beta,gamma,distance,NUTS2_mean,NUTS3_mean,LITERATURE_mean,NUTS2_mean_err,NUTS3_mean_err,LITERATURE_mean_err
0.9,0.9,0.9,0.9,0.7586360387,7.1524001394,3.3270650473,0.2919686299,1.1607069074,0.761203979
1,1,1,1,0.9552997458,9.1877742876,2.896759646,0.3646929904,1.5283505618,0.5409379135
1.1,1.1,1.1,1.1,1.8415590323,8.8444904595,3.2122079587,0.5688953662,1.6212411079,0.5416010776
0.9,1,1,1,0.7393578163,10.2137864099,3.4593396254,0.2672198522,2.1970698854,0.6412579133
1,0.9,1,1,0.6787420871,9.1581499406,2.9934824634,0.2978231777,1.388396249,0.5699427968
1,1,0.9,1,1.1449842364,9.8656735537,3.51169138,0.4229557472,1.9512132851,0.5852941362
1,1,1,0.9,1.3847247248,8.223728908,3.0633489835,0.4166983621,1.1358854985,0.4958170313
1.1,1,1,1,1.6309145282,8.0453674834,3.397448077,0.4654031552,1.4485921309,0.686857574
1,1.1,1,1,1.3753594824,9.1461962618,3.3774161373,0.4534466827,1.439789588,0.6602299778
1,1,1.1,1,1.2010844334,8.3007670806,2.8145397925,0.374304833,1.3729767738,0.4603010877
1,1,1,1.1,0.9282041634,8.6987718934,2.9840139198,0.3749039918,1.5749118684,0.5290422219
,,,,,,,,,
,,,,,,,,,
,,,,10.2137864099,,,2.1970698854,,
